tests/tmp/source_10_tb.vcd
$date
  Fri Sep 27 14:58:40 2024
$end
$version
  GHDL v0
$end
$timescale
  1 fs
$end
$scope module source_10_tb $end
$var reg 1 ! nom_clk $end
$var reg 1 " obs_clk $end
$var reg 41 # tb_in[40:0] $end
$var reg 73 $ tb_out_init[72:0] $end
$var reg 73 % tb_out_alt[72:0] $end
$var reg 73 & tb_out_diff[72:0] $end
$var reg 1 ' tb_o0 $end
$var reg 1 ( tb_o0_s $end
$var reg 1 ) tb_o1 $end
$var reg 1 * tb_o1_s $end
$var reg 1 + tb_o2 $end
$var reg 1 , tb_o2_s $end
$var reg 1 - tb_o3 $end
$var reg 1 . tb_o3_s $end
$var reg 1 / tb_o4 $end
$var reg 1 0 tb_o4_s $end
$var reg 1 1 tb_o5 $end
$var reg 1 2 tb_o5_s $end
$var reg 1 3 tb_o6 $end
$var reg 1 4 tb_o6_s $end
$var reg 1 5 tb_o7 $end
$var reg 1 6 tb_o7_s $end
$var reg 1 7 tb_o8 $end
$var reg 1 8 tb_o8_s $end
$var reg 1 9 tb_o9 $end
$var reg 1 : tb_o9_s $end
$var reg 1 ; tb_o10 $end
$var reg 1 < tb_o10_s $end
$var reg 1 = tb_o11 $end
$var reg 1 > tb_o11_s $end
$var reg 1 ? tb_o12 $end
$var reg 1 @ tb_o12_s $end
$var reg 1 A tb_o13 $end
$var reg 1 B tb_o13_s $end
$var reg 1 C tb_o14 $end
$var reg 1 D tb_o14_s $end
$var reg 1 E tb_o15 $end
$var reg 1 F tb_o15_s $end
$var reg 1 G tb_o16 $end
$var reg 1 H tb_o16_s $end
$var reg 1 I tb_o17 $end
$var reg 1 J tb_o17_s $end
$var reg 1 K tb_o18 $end
$var reg 1 L tb_o18_s $end
$var reg 1 M tb_o19 $end
$var reg 1 N tb_o19_s $end
$var reg 1 O tb_o20 $end
$var reg 1 P tb_o20_s $end
$var reg 1 Q tb_o21 $end
$var reg 1 R tb_o21_s $end
$var reg 1 S tb_o22 $end
$var reg 1 T tb_o22_s $end
$var reg 1 U tb_o23 $end
$var reg 1 V tb_o23_s $end
$var reg 1 W tb_o24 $end
$var reg 1 X tb_o24_s $end
$var reg 1 Y tb_o25 $end
$var reg 1 Z tb_o25_s $end
$var reg 1 [ tb_o26 $end
$var reg 1 \ tb_o26_s $end
$var reg 1 ] tb_o27 $end
$var reg 1 ^ tb_o27_s $end
$var reg 1 _ tb_o28 $end
$var reg 1 ` tb_o28_s $end
$var reg 1 a tb_o29 $end
$var reg 1 b tb_o29_s $end
$var reg 1 c tb_o30 $end
$var reg 1 d tb_o30_s $end
$var reg 1 e tb_o31 $end
$var reg 1 f tb_o31_s $end
$var reg 1 g tb_o32 $end
$var reg 1 h tb_o32_s $end
$var reg 1 i tb_o33 $end
$var reg 1 j tb_o33_s $end
$var reg 1 k tb_o34 $end
$var reg 1 l tb_o34_s $end
$var reg 1 m tb_o35 $end
$var reg 1 n tb_o35_s $end
$var reg 1 o tb_o36 $end
$var reg 1 p tb_o36_s $end
$var reg 1 q tb_o37 $end
$var reg 1 r tb_o37_s $end
$var reg 1 s tb_o38 $end
$var reg 1 t tb_o38_s $end
$var reg 1 u tb_o39 $end
$var reg 1 v tb_o39_s $end
$var reg 1 w tb_o40 $end
$var reg 1 x tb_o40_s $end
$var reg 1 y tb_o41 $end
$var reg 1 z tb_o41_s $end
$var reg 1 { tb_o42 $end
$var reg 1 | tb_o42_s $end
$var reg 1 } tb_o43 $end
$var reg 1 !" tb_o43_s $end
$var reg 1 "" tb_o44 $end
$var reg 1 #" tb_o44_s $end
$var reg 1 $" tb_o45 $end
$var reg 1 %" tb_o45_s $end
$var reg 1 &" tb_o46 $end
$var reg 1 '" tb_o46_s $end
$var reg 1 (" tb_o47 $end
$var reg 1 )" tb_o47_s $end
$var reg 1 *" tb_o48 $end
$var reg 1 +" tb_o48_s $end
$var reg 1 ," tb_o49 $end
$var reg 1 -" tb_o49_s $end
$var reg 1 ." tb_o50 $end
$var reg 1 /" tb_o50_s $end
$var reg 1 0" tb_o51 $end
$var reg 1 1" tb_o51_s $end
$var reg 1 2" tb_o52 $end
$var reg 1 3" tb_o52_s $end
$var reg 1 4" tb_o53 $end
$var reg 1 5" tb_o53_s $end
$var reg 1 6" tb_o54 $end
$var reg 1 7" tb_o54_s $end
$var reg 1 8" tb_o55 $end
$var reg 1 9" tb_o55_s $end
$var reg 1 :" tb_o56 $end
$var reg 1 ;" tb_o56_s $end
$var reg 1 <" tb_o57 $end
$var reg 1 =" tb_o57_s $end
$var reg 1 >" tb_o58 $end
$var reg 1 ?" tb_o58_s $end
$var reg 1 @" tb_o59 $end
$var reg 1 A" tb_o59_s $end
$var reg 1 B" tb_o60 $end
$var reg 1 C" tb_o60_s $end
$var reg 1 D" tb_o61 $end
$var reg 1 E" tb_o61_s $end
$var reg 1 F" tb_o62 $end
$var reg 1 G" tb_o62_s $end
$var reg 1 H" tb_o63 $end
$var reg 1 I" tb_o63_s $end
$var reg 1 J" tb_o64 $end
$var reg 1 K" tb_o64_s $end
$var reg 1 L" tb_o65 $end
$var reg 1 M" tb_o65_s $end
$var reg 1 N" tb_o66 $end
$var reg 1 O" tb_o66_s $end
$var reg 1 P" tb_o67 $end
$var reg 1 Q" tb_o67_s $end
$var reg 1 R" tb_o68 $end
$var reg 1 S" tb_o68_s $end
$var reg 1 T" tb_o69 $end
$var reg 1 U" tb_o69_s $end
$var reg 1 V" tb_o70 $end
$var reg 1 W" tb_o70_s $end
$var reg 1 X" tb_o71 $end
$var reg 1 Y" tb_o71_s $end
$var reg 1 Z" tb_o72 $end
$var reg 1 [" tb_o72_s $end
$var reg 1 \" running $end
$var reg 1 ]" phase_shift $end
$upscope $end
$enddefinitions $end
#0
1!
1"
b01101111000010001010101011001111111111001 #
bUUUUUUUUUUUUUUUUUUUUUUUUUUUUUUUUU0UUUUUU00UUUUUUUUUUUUUUUUUUUUUUUUUUUUU0U $
bUUUUUUUUUUUUUUUUUUUUUUUUUUUUUUUUU0UUUUUU00UUUUUUUUUUUUUUUUUUUUUUUUUUUUU0U %
bUUUUUUUUUUUUUUUUUUUUUUUUUUUUUUUUU0UUUUUU00UUUUUUUUUUUUUUUUUUUUUUUUUUUUU0U &
U'
U(
0)
U*
U+
U,
U-
U.
U/
U0
U1
U2
U3
U4
U5
U6
U7
U8
U9
U:
U;
U<
U=
U>
U?
U@
UA
UB
UC
UD
UE
UF
UG
UH
UI
UJ
UK
UL
UM
UN
UO
UP
UQ
UR
US
UT
UU
UV
UW
UX
UY
UZ
U[
U\
U]
U^
U_
U`
Ua
Ub
Uc
Ud
0e
Uf
0g
Uh
Ui
Uj
Uk
Ul
Um
Un
Uo
Up
Uq
Ur
Us
Ut
0u
Uv
Uw
Ux
Uy
Uz
U{
U|
U}
U!"
U""
U#"
U$"
U%"
U&"
U'"
U("
U)"
U*"
U+"
U,"
U-"
U."
U/"
U0"
U1"
U2"
U3"
U4"
U5"
U6"
U7"
U8"
U9"
U:"
U;"
U<"
U="
U>"
U?"
U@"
UA"
UB"
UC"
UD"
UE"
UF"
UG"
UH"
UI"
UJ"
UK"
UL"
UM"
UN"
UO"
UP"
UQ"
UR"
US"
UT"
UU"
UV"
UW"
UX"
UY"
UZ"
U["
1\"
1]"
#1000
#2000
b00UUUUUUUUUUUUUUUUUUUUUUU0UUUUUUU0UU00U000UU0UUUUUUUUUUU0UU0U0UU0UUUUUU0U $
b00UUUUUUUUUUUUUUUUUUUUUUU0UUUUUUU0UU00U000UU0UUUUUUUUUUU0UU0U0UU0UUUUUU0U %
b00UUUUUUUUUUUUUUUUUUUUUUU0UUUUUUU0UU00U000UU0UUUUUUUUUUU0UU0U0UU0UUUUUU0U &
07
0=
0A
0G
0_
0i
0m
0o
0("
0X"
0Z"
#2950
0"
#3000
b00UUUUUUUU0U0UUUUUUU000UU0UUUUU0U0UU00U000UU0U00UUUU000U0U00U0UU00000UU00 $
b00UUUUUUUU0UUUUUUUUU000UU0UUUUU0U0UU00U000UU0U00UUUU000U0U00U0UU00000UU00 %
b00UUUUUUUU0UUUUUUUUU000UU0UUUUU0U0UU00U000UU0U00UUUU000U0U00U0UU00000UU00 &
0'
0/
01
03
05
0C
0K
0M
0O
0Y
0[
0y
0."
00"
02"
0F"
#4000
b0000000000000U000U0000000000U0000000000000000000U00U000000000000000000000 $
b000000000000UU000U0000000000U0000000000000000000U00U000000000000000000000 %
b000000000000UU000U0000000000U0000000000000000000U00U000000000000000000000 &
0+
0-
09
0;
0?
0E
0I
0S
0U
0]
0a
0c
0k
0q
0s
0w
0{
0}
0$"
0&"
0*"
0,"
04"
06"
0:"
0<"
0>"
0D"
0H"
0J"
0L"
0N"
0P"
0R"
0T"
0V"
#5000
b0000000000000000000000000000000000000000000000000000000000000000000000000 $
b0000000000001000000000000000000000000000000000000000000000000000000000000 %
b0000000000001000000000000000000000000000000000000000000000000000000000000 &
0Q
0W
0""
08"
0@"
1B"
#5900
1"
0(
0*
0,
0.
00
02
04
06
08
0:
0<
0>
0@
0B
0D
0F
0H
0J
0L
0N
0P
0R
0T
0V
0X
0Z
0\
0^
0`
0b
0d
0f
0h
0j
0l
0n
0p
0r
0t
0v
0x
0z
0|
0!"
0#"
0%"
0'"
0)"
0+"
0-"
0/"
01"
03"
05"
07"
09"
0;"
0="
0?"
0A"
1C"
0E"
0G"
0I"
0K"
0M"
0O"
0Q"
0S"
0U"
0W"
0Y"
0["
#6000
#7000
#8000
#8850
0"
#9000
#10000
#11000
#11800
1"
#12000
#13000
#14000
#14750
0"
#15000
#16000
#17700
1"
#20650
0"
#23600
1"
#26550
0"
#29500
0!
1"
#32450
0"
#35400
1"
#38350
0"
#41300
1"
#44250
0"
#47200
1"
#50150
0"
#53100
1"
#56050
0"
#59000
1!
1"
b01111011001010010111111000111110010011000 #
#60000
#61000
b0000000000000000000000000100000000001101000010000000000010010100100000000 $
b0000000000001000000000000100000000001101000010000000000010010100100000000 %
#61950
0"
#62000
b0000000000000000000000000000000000000101000100000010000001000000000000000 $
b0000000000001000000000000000000000000101000100000010000001000000000000000 %
#63000
b0000000000000000000000000000000000001101000110000010000000000000000000000 $
b0000000000001000000000000000000000001101000110000010000000000000000000000 %
#64000
b0000000000000000000000000000000000001101000110000010011000000000000000000 $
b0000000000001000000000000000000000001101000110000010011000000000000000000 %
#64900
1"
#65000
b0000000000000000000000000000000000001101000110001010011001000000000000000 $
b0000000000001000000000000000000000001101000110001010011001000000000000000 %
#66000
b0000000000000000000000000000000000001111000111001010011001000000000000000 $
b0000000000001000000000000000000000001111000111001010011001000000000000000 %
#67000
#67850
0"
#68000
#69000
#70000
#70800
1"
#71000
#72000
#73750
0"
#76700
1"
#79650
0"
#82600
1"
#85550
0"
#88500
0!
1"
#91450
0"
#94400
1"
#97350
0"
#100300
1"
#103250
0"
#106200
1"
#109150
0"
#112100
1"
#115050
0"
#118000
1!
1"
b00010000110100111111100011010011111010100 #
#119000
#120000
b0000000000000000000000000000000000000010000101001010011001000000000000000 $
b0000000000001000000000000000000000000010000101001010011001000000000000000 %
#120950
0"
#121000
b0000000000000000000000000000000000000000000000001000000001000000000000000 $
b0000000000001000000000000000000000000000000000001000000001000000000000000 %
#122000
b0000000000000000000000000000000000000000000000001000000000000000000000000 $
b0000000000000000000000000000000000000000000000001000000000000000000000000 %
b0000000000000000000000000000000000000000000000000000000000000000000000000 &
0B"
#123000
b0000000000000000000000000000000000000000000000000000000000000000000000000 $
b0000000000000000000000000000000000000000000000000000000000000000000000000 %
#123900
1"
0C"
#124000
#125000
#126000
#126850
0"
#127000
#128000
#129000
#129800
1"
#130000
#131000
#132000
#132750
0"
#133000
#134000
#135000
#135700
1"
#136000
#138650
0"
#141600
1"
#144550
0"
#147500
0!
1"
#150450
0"
#153400
1"
#156350
0"
#159300
1"
#162250
0"
#165200
1"
#168150
0"
#171100
1"
#174050
0"
#177000
1!
1"
b01110111101011011111111111001010100001001 #
#178000
#179000
#179950
0"
#180000
#181000
b0000000000001000000000000000000000000000000000000000000000000000000000000 %
b0000000000001000000000000000000000000000000000000000000000000000000000000 &
1B"
#182000
#182900
1"
1C"
#183000
#184000
#185000
#185850
0"
#186000
#187000
#188000
#188800
1"
#189000
#190000
#191000
#191750
0"
#192000
#194700
1"
#197650
0"
#200600
1"
#203550
0"
#206500
0!
1"
#209450
0"
#212400
1"
#215350
0"
#218300
1"
#221250
0"
#224200
1"
#227150
0"
#230100
1"
#233050
0"
#236000
1!
1"
b01111000100111110000000000100110101111100 #
#237000
#238000
#238950
0"
#239000
#240000
#241000
#241900
1"
#242000
#243000
#244000
#244850
0"
#245000
#246000
#247000
#247800
1"
#250750
0"
#253700
1"
#256650
0"
#259600
1"
#262550
0"
#265500
0!
1"
#268450
0"
#271400
1"
#274350
0"
#277300
1"
#280250
0"
#283200
1"
#286150
0"
#289100
1"
#292050
0"
#295000
1!
1"
b11100010000010101010000100000110111001100 #
#296000
#297000
#297950
0"
#298000
#299000
#300000
#300900
1"
#301000
#302000
#303000
#303850
0"
#304000
#305000
#306000
#306800
1"
#307000
#308000
#309000
#309750
0"
#310000
#312700
1"
#315650
0"
#318600
1"
#321550
0"
#324500
0!
1"
#327450
0"
#330400
1"
#333350
0"
#336300
1"
#339250
0"
#342200
1"
#345150
0"
#348100
1"
#351050
0"
#354000
1!
1"
b01101101101110110001011111001000101110111 #
#355000
#356000
#356950
0"
#357000
#358000
b0000000000000000000000000000000000000000000000000000000000000000000000000 %
b0000000000000000000000000000000000000000000000000000000000000000000000000 &
0B"
#359000
#359900
1"
0C"
#360000
#361000
#362000
#362850
0"
#363000
#364000
#365000
#365800
1"
#366000
#368750
0"
#371700
1"
#374650
0"
#377600
1"
#380550
0"
#383500
0!
1"
#386450
0"
#389400
1"
#392350
0"
#395300
1"
#398250
0"
#401200
1"
#404150
0"
#407100
1"
#410050
0"
#413000
1!
1"
b11000100001011010110111010110101110011010 #
#414000
#415000
#415950
0"
#416000
#417000
#418000
#418900
1"
#419000
#420000
#421000
#421850
0"
#422000
#423000
#424000
#424800
1"
#425000
#426000
#427000
#427750
0"
#430700
1"
#433650
0"
#436600
1"
#439550
0"
#442500
0!
1"
#445450
0"
#448400
1"
#451350
0"
#454300
1"
#457250
0"
#460200
1"
#463150
0"
#466100
1"
#469050
0"
#472000
1!
1"
b00111001000010011010101011101010001110110 #
#473000
#474000
b0000000000000000000000000100000000001101000010000000000000010100100000000 $
b0000000000000000000000000100000000001101000010000000000000010100100000000 %
#474950
0"
#475000
b0000000000000000000000000100000000000101000100000010000000000000000000000 $
b0000000000000000000000000100000000000101000100000010000000000000000000000 %
#476000
b0000000000000000000000000000000000001101000010000000000000000000000000000 $
b0000000000000000000000000000000000001101000010000000000000000000000000000 %
#477000
b0000000000000000000000000000000000001101000010000000001000000000000000000 $
b0000000000000000000000000000000000001101000010000000001000000000000000000 %
#477900
1"
#478000
b0000000000000000000000000000000000001101000110001010001001000000000000000 $
b0000000000000000000000000000000000001101000110001010001001000000000000000 %
#479000
b0000000000000000000000000000000000001111000111001010001001000000000000000 $
b0000000000000000000000000000000000001111000111001010001001000000000000000 %
#480000
#480850
0"
#481000
#482000
#483000
#483800
1"
#486750
0"
#489700
1"
#492650
0"
#495600
1"
#498550
0"
#501500
0!
1"
#504450
0"
#507400
1"
#510350
0"
#513300
1"
#516250
0"
#519200
1"
#522150
0"
#525100
1"
#528050
0"
#531000
1!
1"
b00111101011111001000100010100101110100000 #
#532000
#533000
b0000000000000000000000000000000000000010000101001010001001000000000000000 $
b0000000000000000000000000000000000000010000101001010001001000000000000000 %
#533950
0"
#534000
b0000000000000000000000000000000000000000000000001000000001000000000000000 $
b0000000000000000000000000000000000000000000000001000000001000000000000000 %
#535000
b0000000000000000000000000000000000000000000000001000000000000000000000000 $
b0000000000000000000000000000000000000000000000001000000000000000000000000 %
#536000
b0000000000000000000000000000000000000000000000000000000000000000000000000 $
b0000000000000000000000000000000000000000000000000000000000000000000000000 %
#536900
1"
#537000
#538000
#539000
#539850
0"
#540000
#541000
#542000
#542800
1"
#545750
0"
#548700
1"
#551650
0"
#554600
1"
#557550
0"
#560500
0!
1"
#563450
0"
#566400
1"
#569350
0"
#572300
1"
#575250
0"
#578200
1"
#581150
0"
#584100
1"
#587050
0"
#590000
1!
1"
b11100011011000101100011110011110000011110 #
#591000
#592000
b0000000000000000000000000100000000001101000010000000000000010100100000000 $
b0000000000000000000000000100000000001101000010000000000000010100100000000 %
#592950
0"
#593000
b0000000000000000000000000100000000000101000100000010000000000000000000000 $
b0000000000000000000000000100000000000101000100000010000000000000000000000 %
#594000
b0000000000000000000000000000000000001101000110000010000000000000000000000 $
b0000000000000000000000000000000000001101000110000010000000000000000000000 %
#595000
b0000000000000000000000000000000000001101000110000010011000000000000000000 $
b0000000000001000000000000000000000001101000110000010011000000000000000000 %
b0000000000001000000000000000000000000000000000000000000000000000000000000 &
1B"
#595900
1"
1C"
#596000
b0000000000000000000000000000000000001101000110001010011001000000000000000 $
b0000000000001000000000000000000000001101000110001010011001000000000000000 %
#597000
b0000000000000000000000000000000000001111000111001010011001000000000000000 $
b0000000000001000000000000000000000001111000111001010011001000000000000000 %
#598000
#598850
0"
#599000
#600000
#601000
#601800
1"
#602000
#603000
#604000
#604750
0"
#605000
#607700
1"
#610650
0"
#613600
1"
#616550
0"
#619500
0!
1"
#622450
0"
#625400
1"
#628350
0"
#631300
1"
#634250
0"
#637200
1"
#640150
0"
#643100
1"
#646050
0"
#649000
1!
1"
b10101110110001001010100100100111001000110 #
#650000
#651000
b0000000000000000000000000000000000001110000111001010011001000000000000000 $
b0000000000001000000000000000000000001110000111001010011001000000000000000 %
#651950
0"
#652000
b0000000000000000000000000100000000001100000110001010011011010100100000000 $
b0000000000001000000000000100000000001100000110001010011011010100100000000 %
#653000
b0000000000000000000000000100000000001100000110001010011011010100100000000 %
b0000000000000000000000000000000000000000000000000000000000000000000000000 &
0B"
#654000
#654900
1"
0C"
#655000
#656000
#657000
#657850
0"
#658000
#659000
#660000
#660800
1"
#661000
#662000
#663000
#663750
0"
#664000
#665000
#666000
#666700
1"
#667000
#669650
0"
#672600
1"
#675550
0"
#678500
0!
1"
#681450
0"
#684400
1"
#687350
0"
#690300
1"
#693250
0"
#696200
1"
#699150
0"
#702100
1"
#705050
0"
#708000
1!
1"
b00011110000101011011110111111000011000101 #
#709000
#710000
b1000000000000000000000000100000000001100000110001010011011010100100000000 $
b1000000000000000000000000100000000001100000110001010011011010100100000000 %
#710950
0"
#711000
b0000000000000000000000000000000000000010000101001010011001000000000000000 $
b0000000000000000000000000000000000000010000101001010011001000000000000000 %
#712000
b1000000000000000000000000100000000000000000000001000010001000000000000000 $
b1000000000000000000000000100000000000000000000001000010001000000000000000 %
#713000
b1000000000000000000000000000000000000010000101001010000010000000000000000 $
b1000000000000000000000000000000000000010000101001010000010000000000000000 %
#713900
1"
#714000
b1000000000000000000000000000000000110010000101001010000010000000000000000 $
b1000000000000000000000000000000000110010000101001010000010000000000000000 %
#715000
#716000
#716850
0"
#717000
#718000
#719000
#719800
1"
#722750
0"
#725700
1"
#728650
0"
#731600
1"
#734550
0"
#737500
0!
1"
#740450
0"
#743400
1"
#746350
0"
#749300
1"
#752250
0"
#755200
1"
#758150
0"
#761100
1"
#764050
0"
#767000
1!
1"
b00011001110100001011101000101011101010000 #
#768000
#769000
b0000000000000000000000000000000000110010000101001010000000000000000000000 $
b0000000000000000000000000000000000110010000101001010000000000000000000000 %
#769950
0"
#770000
b0000000000000000000000000000000000110010000001001000000000000000000000000 $
b0000000000000000000000000000000000110010000001001000000000000000000000000 %
#771000
b0000000000000000000000000000000000000000000000001000000000000000000000000 $
b0000000000000000000000000000000000000000000000001000000000000000000000000 %
#772000
b0000000000000000000000000000000000000000000000000000000000000000000000000 $
b0000000000000000000000000000000000000000000000000000000000000000000000000 %
#772900
1"
#773000
#774000
#775000
#775850
0"
#776000
#777000
#778000
#778800
1"
#779000
#780000
#781750
0"
#784700
1"
#787650
0"
#790600
1"
#793550
0"
#796500
0!
1"
#799450
0"
#802400
1"
#805350
0"
#808300
1"
#811250
0"
#814200
1"
#817150
0"
#820100
1"
#823050
0"
#826000
1!
1"
b00000010101101100010111101010110000010101 #
#827000
#828000
b0000000000000000000000000000000000000001000000000000000010000000000000000 $
b0000000000000000000000000000000000000001000000000000000010000000000000000 %
#828950
0"
#829000
b0000000000000000000000000000000000000101000100000010000000000000000000000 $
b0000000000000000000000000000000000000101000100000010000000000000000000000 %
#830000
b0000000000000000000000000000000000001101000110000010000000000000000000000 $
b0000000000000000000000000000000000001101000110000010000000000000000000000 %
#831000
b0000000000000000000000000000000000001101000110000010011000000000000000000 $
b0000000000000000000000000000000000001101000110000010011000000000000000000 %
#831900
1"
#832000
b0000000000000000000000000000000000001101000110001010011001000000000000000 $
b0000000000000000000000000000000000001101000110001010011001000000000000000 %
#833000
b0000000000000000000000000000000000001111000111001010011001000000000000000 $
b0000000000000000000000000000000000001111000111001010011001000000000000000 %
#834000
#834850
0"
#835000
#836000
#837000
#837800
1"
#838000
#839000
#840000
#840750
0"
#843700
1"
#846650
0"
#849600
1"
#852550
0"
#855500
0!
1"
#858450
0"
#861400
1"
#864350
0"
#867300
1"
#870250
0"
#873200
1"
#876150
0"
#879100
1"
#882050
0"
#885000
1!
1"
b00010001100001000001001110110111100000110 #
#886000
#887000
b0000000000000000000000000000000000000010000101001010011001000000000000000 $
b0000000000000000000000000000000000000010000101001010011001000000000000000 %
#887950
0"
#888000
b0000000000000000000000000000000000000000000000001000000001000000000000000 $
b0000000000000000000000000000000000000000000000001000000001000000000000000 %
#889000
b0000000000000000000000000000000000000000000000001000000000000000000000000 $
b0000000000000000000000000000000000000000000000001000000000000000000000000 %
#890000
b0000000000000000000000000000000000000000000000000000000000000000000000000 $
b0000000000000000000000000000000000000000000000000000000000000000000000000 %
#890900
1"
#891000
#892000
#893000
#893850
0"
#894000
#895000
#896000
#896800
1"
#897000
#898000
#899000
#899750
0"
#900000
#902700
1"
#905650
0"
#908600
1"
#911550
0"
#914500
0!
1"
#917450
0"
#920400
1"
#923350
0"
#926300
1"
#929250
0"
#932200
1"
#935150
0"
#938100
1"
#941050
0"
#944000
1!
1"
b10011001111100111011111111101001010011101 #
#945000
#946000
b1000000000000000000000000100000000001100000010000000000010010100100000000 $
b1000000000000000000000000100000000001100000010000000000010010100100000000 %
#946950
0"
#947000
b0100000000000000000000000100000000001100000110000010011001010100100000000 $
b0100000000000000000000000100000000001100000110000010011001010100100000000 %
#948000
b0100000000000000000000000100000000000100000000000000000001000000000000000 $
b0100000000000000000000000100000000000100000000000000000001000000000000000 %
#949000
b0100000000000000000000000000000000001100000110001010011001010100100000000 $
b0100000000000000000000000000000000001100000110001010011001010100100000000 %
#949900
1"
#950000
b0100000000000000000000000100000000001100000110001010011001010100100000000 $
b0100000000000000000000000100000000001100000110001010011001010100100000000 %
#951000
#952000
#952850
0"
#953000
#954000
#955000
#955800
1"
#956000
#957000
#958750
0"
#961700
1"
#964650
0"
#967600
1"
#970550
0"
#973500
0!
1"
#976450
0"
#979400
1"
#982350
0"
#985300
1"
#988250
0"
#991200
1"
#994150
0"
#997100
1"
#1000050
0"
#1003000
1!
1"
b01100101110110100011100111100011010110100 #
#1004000
#1005000
#1005950
0"
#1006000
b1000000000000000000000000100000000111010000111001010011011010100100000000 $
b1000000000000000000000000100000000111010000111001010011011010100100000000 %
#1007000
b1000000000000000000000000000000000111010000111001010011011010100100000000 $
b1000000000000000000000000000000000111010000111001010011011010100100000000 %
#1008000
b1000000000000000000000000000000000110010000101001010000010000000000000000 $
b1000000000000000000000000000000000110010000101001010000010000000000000000 %
#1008900
1"
#1009000
#1010000
#1011000
#1011850
0"
#1012000
#1013000
#1014800
1"
#1017750
0"
#1020700
1"
#1023650
0"
#1026600
1"
#1029550
0"
#1032500
0!
1"
#1035450
0"
#1038400
1"
#1041350
0"
#1044300
1"
#1047250
0"
#1050200
1"
#1053150
0"
#1056100
1"
#1059050
0"
#1062000
1!
1"
b10011001100010011100101011011000100100000 #
#1063000
#1064000
b0000000000000000000000000000000000110010000101001010000000000000000000000 $
b0000000000000000000000000000000000110010000101001010000000000000000000000 %
#1064950
0"
#1065000
b0000000000000000000000000000000000000010000001001000001000000000000000000 $
b0000000000000000000000000000000000000010000001001000001000000000000000000 %
#1066000
b0000000000000000000000000000000000000010000001000000000001000000000000000 $
b0000000000000000000000000000000000000010000001000000000001000000000000000 %
#1067000
b0000000000000000000000000000000000000010000001000000000000000000000000000 $
b0000000000000000000000000000000000000010000001000000000000000000000000000 %
#1067900
1"
#1068000
#1069000
b0000000000000000000000000000000000000000000000000000000000000000000000000 $
b0000000000000000000000000000000000000000000000000000000000000000000000000 %
#1070000
#1070850
0"
#1071000
#1072000
#1073000
#1073800
1"
#1074000
#1075000
#1076000
#1076750
0"
#1077000
#1078000
#1079000
#1079700
1"
#1080000
#1081000
#1082000
#1082650
0"
#1085600
1"
#1088550
0"
#1091500
0!
1"
#1094450
0"
#1097400
1"
#1100350
0"
#1103300
1"
#1106250
0"
#1109200
1"
#1112150
0"
#1115100
1"
#1118050
0"
#1121000
1!
1"
b01010100100001100000110011010111101000100 #
#1122000
#1123000
#1123950
0"
#1124000
#1125000
#1126000
#1126900
1"
#1127000
#1128000
#1129000
#1129850
0"
#1130000
#1131000
#1132000
#1132800
1"
#1133000
#1134000
#1135000
#1135750
0"
#1136000
#1137000
#1138000
#1138700
1"
#1139000
#1140000
#1141650
0"
#1144600
1"
#1147550
0"
#1150500
0!
1"
#1153450
0"
#1156400
1"
#1159350
0"
#1162300
1"
#1165250
0"
#1168200
1"
#1171150
0"
#1174100
1"
#1177050
0"
#1180000
1!
1"
b11101100000110110110111110001111010101110 #
#1181000
#1182000
b0000000000000000000000000100000000001100000010000000000010010100100000000 $
b0000000000000000000000000100000000001100000010000000000010010100100000000 %
#1182950
0"
#1183000
b0000000000000000000000000100000000001100000110000010011011010100100000000 $
b0000000000000000000000000100000000001100000110000010011011010100100000000 %
#1184000
b0000000000001000000000000100000000001100000110000010011011010100100000000 %
b0000000000001000000000000000000000000000000000000000000000000000000000000 &
1B"
#1185000
b0000000000000000000000000100000000001100000110001010011011010100100000000 $
b0000000000001000000000000100000000001100000110001010011011010100100000000 %
#1185900
1"
1C"
#1186000
#1187000
#1188000
#1188850
0"
#1189000
#1190000
#1191000
#1191800
1"
#1192000
#1193000
#1194000
#1194750
0"
#1195000
#1197700
1"
#1200650
0"
#1203600
1"
#1206550
0"
#1209500
0!
1"
#1212450
0"
#1215400
1"
#1218350
0"
#1221300
1"
#1224250
0"
#1227200
1"
#1230150
0"
#1233100
1"
#1236050
0"
#1239000
1!
1"
b10010111111101111101011110001010000010010 #
#1240000
#1241000
b1000000000000000000000000100000000001101000110001010011011010100100000000 $
b1000000000001000000000000100000000001101000110001010011011010100100000000 %
#1241950
0"
#1242000
b0000000000000000000000000000000000000111000101001010011001000000000000000 $
b0000000000001000000000000000000000000111000101001010011001000000000000000 %
#1243000
b0000000000000000000000000000000000001101000010000000011001000000000000000 $
b0000000000000000000000000000000000001101000010000000011001000000000000000 %
b0000000000000000000000000000000000000000000000000000000000000000000000000 &
0B"
#1244000
b0000000000000000000000000000000000001111000111000010001001000000000000000 $
b0000000000000000000000000000000000001111000111000010001001000000000000000 %
#1244900
1"
0C"
#1245000
b0000000000000000000000000000000000001111000111001010001001000000000000000 $
b0000000000000000000000000000000000001111000111001010001001000000000000000 %
#1246000
#1247000
#1247850
0"
#1248000
#1249000
#1250000
#1250800
1"
#1251000
#1252000
#1253000
#1253750
0"
#1254000
#1255000
#1256000
#1256700
1"
#1257000
#1258000
#1259650
0"
#1262600
1"
#1265550
0"
#1268500
0!
1"
#1271450
0"
#1274400
1"
#1277350
0"
#1280300
1"
#1283250
0"
#1286200
1"
#1289150
0"
#1292100
1"
#1295050
0"
#1298000
1!
1"
b00110101111100010110001011000111111101000 #
#1299000
#1300000
b0000000000000000000000000000000000000010000101001010001001000000000000000 $
b0000000000000000000000000000000000000010000101001010001001000000000000000 %
#1300950
0"
#1301000
b0000000000000000000000000000000000110010000001001000000001000000000000000 $
b0000000000000000000000000000000000110010000001001000000001000000000000000 %
#1302000
b0000000000000000000000000000000000000000000000001000000000000000000000000 $
b0000000000000000000000000000000000000000000000001000000000000000000000000 %
#1303000
b0000000000000000000000000000000000000000000000000000000000000000000000000 $
b0000000000000000000000000000000000000000000000000000000000000000000000000 %
#1303900
1"
#1304000
#1305000
#1306000
#1306850
0"
#1307000
#1308000
#1309000
#1309800
1"
#1310000
#1311000
#1312000
#1312750
0"
#1313000
#1314000
#1315000
#1315700
1"
#1316000
#1317000
#1318650
0"
#1321600
1"
#1324550
0"
#1327500
0!
1"
#1330450
0"
#1333400
1"
#1336350
0"
#1339300
1"
#1342250
0"
#1345200
1"
#1348150
0"
#1351100
1"
#1354050
0"
#1357000
1!
1"
b01110010110010110111101001101110001001010 #
#1358000
#1359000
b0000000000000000000000000100000000001101000010000000000010010100100000000 $
b0000000000000000000000000100000000001101000010000000000010010100100000000 %
#1359950
0"
#1360000
b0000000000000000000000000000000000000101000100000010000001000000000000000 $
b0000000000000000000000000000000000000101000100000010000001000000000000000 %
#1361000
b0000000000000000000000000000000000001101000110000010000000000000000000000 $
b0000000000001000000000000000000000001101000110000010000000000000000000000 %
b0000000000001000000000000000000000000000000000000000000000000000000000000 &
1B"
#1362000
b0000000000000000000000000000000000001101000110000010011000000000000000000 $
b0000000000001000000000000000000000001101000110000010011000000000000000000 %
#1362900
1"
1C"
