tests/verif_observability/circ_source_1_tb.vcd
$date
  Thu Oct  3 14:08:14 2024
$end
$version
  GHDL v0
$end
$timescale
  1 fs
$end
$scope module standard $end
$upscope $end
$scope module textio $end
$upscope $end
$scope module std_logic_1164 $end
$upscope $end
$scope module numeric_std $end
$upscope $end
$scope module env $end
$upscope $end
$scope module tunnel_pkg $end
$var reg 1 ! probe_i3 $end
$var reg 1 " probe_xor280_o0 $end
$var reg 1 # probe_xor2220_o0 $end
$var reg 1 $ probe_or2200_o0 $end
$var reg 1 % probe_nand2300_o0 $end
$var reg 1 & probe_nand2320_o0 $end
$var reg 1 ' probe_and2180_o0 $end
$var reg 1 ( probe_nand2280_o0 $end
$var reg 1 ) event_on_i3 $end
$var reg 1 * event_on_xor280_o0 $end
$var reg 1 + event_on_xor2220_o0 $end
$var reg 1 , event_on_or2200_o0 $end
$var reg 1 - event_on_nand2300_o0 $end
$var reg 1 . event_on_nand2320_o0 $end
$var reg 1 / event_on_and2180_o0 $end
$var reg 1 0 event_on_nand2280_o0 $end
$var reg 8 1 probe_sigs[7:0] $end
$var reg 8 2 event_on_sigs[7:0] $end
$upscope $end
$scope module circ_source_1_tb $end
$var reg 1 3 nom_clk $end
$var reg 1 4 obs_clk $end
$var reg 5 5 tb_in[4:0] $end
$var reg 1 6 tb_out[0:0] $end
$var reg 1 7 tb_o0 $end
$var reg 1 8 tb_o0_s $end
$var reg 1 9 running $end
$var reg 1 : phase_shift $end
$var reg 1 ; verif_clk $end
$var reg 4 < diff_0[3:0] $end
$var reg 4 = diff_1[3:0] $end
$scope module uut $end
$var reg 1 > i0 $end
$var reg 1 ? i1 $end
$var reg 1 @ i2 $end
$var reg 1 A i3 $end
$var reg 1 B i4 $end
$var reg 1 C o0 $end
$var reg 1 D not60_o0 $end
$var reg 1 E xor280_o0 $end
$var reg 1 F xor2100_o0 $end
$var reg 1 G or2120_o0 $end
$var reg 1 H xor2140_o0 $end
$var reg 1 I nand2160_o0 $end
$var reg 1 J and2180_o0 $end
$var reg 1 K or2200_o0 $end
$var reg 1 L xor2220_o0 $end
$var reg 1 M nand2240_o0 $end
$var reg 1 N or2260_o0 $end
$var reg 1 O nand2280_o0 $end
$var reg 1 P nand2300_o0 $end
$var reg 1 Q nand2320_o0 $end
$scope module not60 $end
$var reg 1 R i0 $end
$var reg 1 S o0 $end
$upscope $end
$scope module xor280 $end
$var reg 1 T i0 $end
$var reg 1 U i1 $end
$var reg 1 V o0 $end
$upscope $end
$scope module xor2100 $end
$var reg 1 W i0 $end
$var reg 1 X i1 $end
$var reg 1 Y o0 $end
$upscope $end
$scope module or2120 $end
$var reg 1 Z i0 $end
$var reg 1 [ i1 $end
$var reg 1 \ o0 $end
$upscope $end
$scope module xor2140 $end
$var reg 1 ] i0 $end
$var reg 1 ^ i1 $end
$var reg 1 _ o0 $end
$upscope $end
$scope module nand2160 $end
$var reg 1 ` i0 $end
$var reg 1 a i1 $end
$var reg 1 b o0 $end
$upscope $end
$scope module and2180 $end
$var reg 1 c i0 $end
$var reg 1 d i1 $end
$var reg 1 e o0 $end
$upscope $end
$scope module or2200 $end
$var reg 1 f i0 $end
$var reg 1 g i1 $end
$var reg 1 h o0 $end
$upscope $end
$scope module xor2220 $end
$var reg 1 i i0 $end
$var reg 1 j i1 $end
$var reg 1 k o0 $end
$upscope $end
$scope module nand2240 $end
$var reg 1 l i0 $end
$var reg 1 m i1 $end
$var reg 1 n o0 $end
$upscope $end
$scope module or2260 $end
$var reg 1 o i0 $end
$var reg 1 p i1 $end
$var reg 1 q o0 $end
$upscope $end
$scope module nand2280 $end
$var reg 1 r i0 $end
$var reg 1 s i1 $end
$var reg 1 t o0 $end
$upscope $end
$scope module nand2300 $end
$var reg 1 u i0 $end
$var reg 1 v i1 $end
$var reg 1 w o0 $end
$upscope $end
$scope module nand2320 $end
$var reg 1 x i0 $end
$var reg 1 y i1 $end
$var reg 1 z o0 $end
$upscope $end
$upscope $end
$scope module eds(0) $end
$scope module edi $end
$var reg 1 { clk $end
$var reg 1 | input_val $end
$var reg 1 } detected $end
$var reg 1 !" latched_value $end
$upscope $end
$upscope $end
$scope module eds(1) $end
$scope module edi $end
$var reg 1 "" clk $end
$var reg 1 #" input_val $end
$var reg 1 $" detected $end
$var reg 1 %" latched_value $end
$upscope $end
$upscope $end
$scope module eds(2) $end
$scope module edi $end
$var reg 1 &" clk $end
$var reg 1 '" input_val $end
$var reg 1 (" detected $end
$var reg 1 )" latched_value $end
$upscope $end
$upscope $end
$scope module eds(3) $end
$scope module edi $end
$var reg 1 *" clk $end
$var reg 1 +" input_val $end
$var reg 1 ," detected $end
$var reg 1 -" latched_value $end
$upscope $end
$upscope $end
$scope module eds(4) $end
$scope module edi $end
$var reg 1 ." clk $end
$var reg 1 /" input_val $end
$var reg 1 0" detected $end
$var reg 1 1" latched_value $end
$upscope $end
$upscope $end
$scope module eds(5) $end
$scope module edi $end
$var reg 1 2" clk $end
$var reg 1 3" input_val $end
$var reg 1 4" detected $end
$var reg 1 5" latched_value $end
$upscope $end
$upscope $end
$scope module eds(6) $end
$scope module edi $end
$var reg 1 6" clk $end
$var reg 1 7" input_val $end
$var reg 1 8" detected $end
$var reg 1 9" latched_value $end
$upscope $end
$upscope $end
$scope module eds(7) $end
$scope module edi $end
$var reg 1 :" clk $end
$var reg 1 ;" input_val $end
$var reg 1 <" detected $end
$var reg 1 =" latched_value $end
$upscope $end
$upscope $end
$scope module ca00 $end
$var reg 1 >" clk $end
$var reg 1 ?" delayed_input $end
$var reg 1 @" direct_input $end
$var reg 1 A" diff $end
$var reg 6 B" values[5:0] $end
$scope module shift_register(0) $end
$scope module reg $end
$var reg 1 C" clk $end
$var reg 1 D" d $end
$var reg 1 E" q $end
$var reg 1 F" latched_value $end
$upscope $end
$upscope $end
$scope module shift_register(1) $end
$scope module reg $end
$var reg 1 G" clk $end
$var reg 1 H" d $end
$var reg 1 I" q $end
$var reg 1 J" latched_value $end
$upscope $end
$upscope $end
$scope module shift_register(2) $end
$scope module reg $end
$var reg 1 K" clk $end
$var reg 1 L" d $end
$var reg 1 M" q $end
$var reg 1 N" latched_value $end
$upscope $end
$upscope $end
$scope module shift_register(3) $end
$scope module reg $end
$var reg 1 O" clk $end
$var reg 1 P" d $end
$var reg 1 Q" q $end
$var reg 1 R" latched_value $end
$upscope $end
$upscope $end
$scope module shift_register(4) $end
$scope module reg $end
$var reg 1 S" clk $end
$var reg 1 T" d $end
$var reg 1 U" q $end
$var reg 1 V" latched_value $end
$upscope $end
$upscope $end
$upscope $end
$scope module ca10 $end
$var reg 1 W" clk $end
$var reg 1 X" delayed_input $end
$var reg 1 Y" direct_input $end
$var reg 1 Z" diff $end
$var reg 6 [" values[5:0] $end
$scope module shift_register(0) $end
$scope module reg $end
$var reg 1 \" clk $end
$var reg 1 ]" d $end
$var reg 1 ^" q $end
$var reg 1 _" latched_value $end
$upscope $end
$upscope $end
$scope module shift_register(1) $end
$scope module reg $end
$var reg 1 `" clk $end
$var reg 1 a" d $end
$var reg 1 b" q $end
$var reg 1 c" latched_value $end
$upscope $end
$upscope $end
$scope module shift_register(2) $end
$scope module reg $end
$var reg 1 d" clk $end
$var reg 1 e" d $end
$var reg 1 f" q $end
$var reg 1 g" latched_value $end
$upscope $end
$upscope $end
$scope module shift_register(3) $end
$scope module reg $end
$var reg 1 h" clk $end
$var reg 1 i" d $end
$var reg 1 j" q $end
$var reg 1 k" latched_value $end
$upscope $end
$upscope $end
$scope module shift_register(4) $end
$scope module reg $end
$var reg 1 l" clk $end
$var reg 1 m" d $end
$var reg 1 n" q $end
$var reg 1 o" latched_value $end
$upscope $end
$upscope $end
$upscope $end
$scope module ca01 $end
$var reg 1 p" clk $end
$var reg 1 q" delayed_input $end
$var reg 1 r" direct_input $end
$var reg 1 s" diff $end
$var reg 4 t" values[3:0] $end
$scope module shift_register(0) $end
$scope module reg $end
$var reg 1 u" clk $end
$var reg 1 v" d $end
$var reg 1 w" q $end
$var reg 1 x" latched_value $end
$upscope $end
$upscope $end
$scope module shift_register(1) $end
$scope module reg $end
$var reg 1 y" clk $end
$var reg 1 z" d $end
$var reg 1 {" q $end
$var reg 1 |" latched_value $end
$upscope $end
$upscope $end
$scope module shift_register(2) $end
$scope module reg $end
$var reg 1 }" clk $end
$var reg 1 !# d $end
$var reg 1 "# q $end
$var reg 1 ## latched_value $end
$upscope $end
$upscope $end
$upscope $end
$scope module ca11 $end
$var reg 1 $# clk $end
$var reg 1 %# delayed_input $end
$var reg 1 &# direct_input $end
$var reg 1 '# diff $end
$var reg 5 (# values[4:0] $end
$scope module shift_register(0) $end
$scope module reg $end
$var reg 1 )# clk $end
$var reg 1 *# d $end
$var reg 1 +# q $end
$var reg 1 ,# latched_value $end
$upscope $end
$upscope $end
$scope module shift_register(1) $end
$scope module reg $end
$var reg 1 -# clk $end
$var reg 1 .# d $end
$var reg 1 /# q $end
$var reg 1 0# latched_value $end
$upscope $end
$upscope $end
$scope module shift_register(2) $end
$scope module reg $end
$var reg 1 1# clk $end
$var reg 1 2# d $end
$var reg 1 3# q $end
$var reg 1 4# latched_value $end
$upscope $end
$upscope $end
$scope module shift_register(3) $end
$scope module reg $end
$var reg 1 5# clk $end
$var reg 1 6# d $end
$var reg 1 7# q $end
$var reg 1 8# latched_value $end
$upscope $end
$upscope $end
$upscope $end
$scope module ca02 $end
$var reg 1 9# clk $end
$var reg 1 :# delayed_input $end
$var reg 1 ;# direct_input $end
$var reg 1 <# diff $end
$var reg 5 =# values[4:0] $end
$scope module shift_register(0) $end
$scope module reg $end
$var reg 1 ># clk $end
$var reg 1 ?# d $end
$var reg 1 @# q $end
$var reg 1 A# latched_value $end
$upscope $end
$upscope $end
$scope module shift_register(1) $end
$scope module reg $end
$var reg 1 B# clk $end
$var reg 1 C# d $end
$var reg 1 D# q $end
$var reg 1 E# latched_value $end
$upscope $end
$upscope $end
$scope module shift_register(2) $end
$scope module reg $end
$var reg 1 F# clk $end
$var reg 1 G# d $end
$var reg 1 H# q $end
$var reg 1 I# latched_value $end
$upscope $end
$upscope $end
$scope module shift_register(3) $end
$scope module reg $end
$var reg 1 J# clk $end
$var reg 1 K# d $end
$var reg 1 L# q $end
$var reg 1 M# latched_value $end
$upscope $end
$upscope $end
$upscope $end
$scope module ca12 $end
$var reg 1 N# clk $end
$var reg 1 O# delayed_input $end
$var reg 1 P# direct_input $end
$var reg 1 Q# diff $end
$var reg 5 R# values[4:0] $end
$scope module shift_register(0) $end
$scope module reg $end
$var reg 1 S# clk $end
$var reg 1 T# d $end
$var reg 1 U# q $end
$var reg 1 V# latched_value $end
$upscope $end
$upscope $end
$scope module shift_register(1) $end
$scope module reg $end
$var reg 1 W# clk $end
$var reg 1 X# d $end
$var reg 1 Y# q $end
$var reg 1 Z# latched_value $end
$upscope $end
$upscope $end
$scope module shift_register(2) $end
$scope module reg $end
$var reg 1 [# clk $end
$var reg 1 \# d $end
$var reg 1 ]# q $end
$var reg 1 ^# latched_value $end
$upscope $end
$upscope $end
$scope module shift_register(3) $end
$scope module reg $end
$var reg 1 _# clk $end
$var reg 1 `# d $end
$var reg 1 a# q $end
$var reg 1 b# latched_value $end
$upscope $end
$upscope $end
$upscope $end
$upscope $end
$enddefinitions $end
#0
0!
U"
U#
U$
U%
U&
U'
U(
U)
U*
U+
U,
U-
U.
U/
U0
b0UUUUUUU 1
bUUUUUUUU 2
13
14
b00000 5
bU 6
U7
U8
19
1:
1;
bUUUU <
bUUUU =
0>
0?
0@
0A
0B
UC
UD
UE
UF
UG
UH
UI
UJ
UK
UL
UM
UN
UO
UP
UQ
0R
US
0T
0U
UV
0W
0X
UY
UZ
U[
U\
0]
0^
U_
U`
Ua
Ub
Uc
Ud
Ue
Uf
Ug
Uh
0i
0j
Uk
0l
Um
Un
0o
Up
Uq
Ur
Us
Ut
Uu
Uv
Uw
Ux
Uy
Uz
1{
U|
U}
U!"
1""
U#"
U$"
U%"
1&"
U'"
U("
U)"
1*"
U+"
U,"
U-"
1."
U/"
U0"
U1"
12"
U3"
U4"
U5"
16"
U7"
U8"
U9"
1:"
0;"
U<"
U="
1>"
U?"
U@"
UA"
bUUUUUU B"
1C"
UD"
UE"
UF"
1G"
UH"
UI"
UJ"
1K"
UL"
UM"
UN"
1O"
UP"
UQ"
UR"
1S"
UT"
UU"
UV"
1W"
UX"
UY"
UZ"
bUUUUUU ["
1\"
U]"
U^"
U_"
1`"
Ua"
Ub"
Uc"
1d"
Ue"
Uf"
Ug"
1h"
Ui"
Uj"
Uk"
1l"
Um"
Un"
Uo"
1p"
Uq"
Ur"
Us"
bUUUU t"
1u"
Uv"
Uw"
Ux"
1y"
Uz"
U{"
U|"
1}"
U!#
U"#
U##
1$#
U%#
U&#
U'#
bUUUUU (#
1)#
U*#
U+#
U,#
1-#
U.#
U/#
U0#
11#
U2#
U3#
U4#
15#
U6#
U7#
U8#
19#
U:#
U;#
U<#
bUUUUU =#
1>#
U?#
U@#
UA#
1B#
UC#
UD#
UE#
1F#
UG#
UH#
UI#
1J#
UK#
UL#
UM#
1N#
UO#
UP#
UQ#
bUUUUU R#
1S#
UT#
UU#
UV#
1W#
UX#
UY#
UZ#
1[#
U\#
U]#
U^#
1_#
U`#
Ua#
Ub#
#250
0;
0{
0""
0&"
0*"
0."
02"
06"
0:"
0>"
0C"
0G"
0K"
0O"
0S"
0W"
0\"
0`"
0d"
0h"
0l"
0p"
0u"
0y"
0}"
0$#
0)#
0-#
01#
05#
09#
0>#
0B#
0F#
0J#
0N#
0S#
0W#
0[#
0_#
#500
b0UUUUUUU 2
1;
1{
1""
1&"
1*"
1."
12"
16"
1:"
0<"
0="
1>"
0?"
bUUUUU0 B"
1C"
0D"
1G"
1K"
1O"
1S"
1W"
0X"
bUUUUU0 ["
1\"
0]"
1`"
1d"
1h"
1l"
1p"
1u"
1y"
1}"
1$#
1)#
1-#
11#
15#
19#
1>#
1B#
1F#
1J#
1N#
1S#
1W#
1[#
1_#
#750
0;
0{
0""
0&"
0*"
0."
02"
06"
0:"
0>"
0C"
0G"
0K"
0O"
0S"
0W"
0\"
0`"
0d"
0h"
0l"
0p"
0u"
0y"
0}"
0$#
0)#
0-#
01#
05#
09#
0>#
0B#
0F#
0J#
0N#
0S#
0W#
0[#
0_#
#1000
1;
1D
1S
1Z
1`
1{
1""
1&"
1*"
1."
12"
16"
1:"
1>"
bUUUU00 B"
1C"
0E"
1G"
0H"
1K"
1O"
1S"
1W"
bUUUU00 ["
1\"
0^"
1`"
0a"
1d"
1h"
1l"
1p"
1u"
1y"
1}"
1$#
1)#
1-#
11#
15#
19#
1>#
1B#
1F#
1J#
1N#
1S#
1W#
1[#
1_#
#1250
0;
0{
0""
0&"
0*"
0."
02"
06"
0:"
0>"
0C"
0G"
0K"
0O"
0S"
0W"
0\"
0`"
0d"
0h"
0l"
0p"
0u"
0y"
0}"
0$#
0)#
0-#
01#
05#
09#
0>#
0B#
0F#
0J#
0N#
0S#
0W#
0[#
0_#
#1500
1;
Ue
Uh
Uq
1{
1""
1&"
1*"
1."
12"
16"
1:"
1>"
bUUU000 B"
1C"
1G"
0I"
1K"
0L"
1O"
1S"
1W"
bUUU000 ["
1\"
1`"
0b"
1d"
0e"
1h"
1l"
1p"
1u"
1y"
1}"
1$#
1)#
1-#
11#
15#
19#
1>#
1B#
1F#
1J#
1N#
1S#
1W#
1[#
1_#
#1750
0;
0{
0""
0&"
0*"
0."
02"
06"
0:"
0>"
0C"
0G"
0K"
0O"
0S"
0W"
0\"
0`"
0d"
0h"
0l"
0p"
0u"
0y"
0}"
0$#
0)#
0-#
01#
05#
09#
0>#
0B#
0F#
0J#
0N#
0S#
0W#
0[#
0_#
#2000
1;
1M
Ub
1n
1r
Ut
Uw
Uz
1{
1""
1&"
1*"
1."
12"
16"
1:"
1>"
bUU0000 B"
1C"
1G"
1K"
0M"
1O"
0P"
1S"
1W"
bUU0000 ["
1\"
1`"
1d"
0f"
1h"
0i"
1l"
1p"
1u"
1y"
1}"
1$#
1)#
1-#
11#
15#
19#
1>#
1B#
1F#
1J#
1N#
1S#
1W#
1[#
1_#
#2250
0;
0{
0""
0&"
0*"
0."
02"
06"
0:"
0>"
0C"
0G"
0K"
0O"
0S"
0W"
0\"
0`"
0d"
0h"
0l"
0p"
0u"
0y"
0}"
0$#
0)#
0-#
01#
05#
09#
0>#
0B#
0F#
0J#
0N#
0S#
0W#
0[#
0_#
#2500
0"
0#
b000UUUUU 1
1;
0E
0F
1G
0H
0L
0V
0Y
0[
1\
0_
0a
1c
0f
0k
0m
0p
0u
1{
1""
1&"
1*"
1."
12"
03"
16"
07"
1:"
1>"
bU00000 B"
1C"
1G"
1K"
1O"
0Q"
1S"
0T"
1W"
bU00000 ["
1\"
1`"
1d"
1h"
0j"
1l"
0m"
1p"
1u"
1y"
1}"
1$#
1)#
1-#
11#
15#
19#
1>#
1B#
1F#
1J#
1N#
1S#
1W#
1[#
1_#
#2750
0;
0{
0""
0&"
0*"
0."
02"
06"
0:"
0>"
0C"
0G"
0K"
0O"
0S"
0W"
0\"
0`"
0d"
0h"
0l"
0p"
0u"
0y"
0}"
0$#
0)#
0-#
01#
05#
09#
0>#
0B#
0F#
0J#
0N#
0S#
0W#
0[#
0_#
#3000
b000UUUUU 2
1;
bU000 <
bUUU0 =
1{
1""
1&"
1*"
1."
12"
04"
05"
16"
08"
09"
1:"
1>"
0@"
0A"
b000000 B"
1C"
1G"
1K"
1O"
1S"
0U"
1W"
0Y"
0Z"
b000000 ["
1\"
1`"
1d"
1h"
1l"
0n"
1p"
0q"
0r"
0s"
bUUU0 t"
1u"
0v"
1y"
1}"
1$#
0%#
bUUUU0 (#
1)#
0*#
1-#
11#
15#
19#
0:#
bUUUU0 =#
1>#
0?#
1B#
1F#
1J#
1N#
1S#
1W#
1[#
1_#
#3250
0;
0{
0""
0&"
0*"
0."
02"
06"
0:"
0>"
0C"
0G"
0K"
0O"
0S"
0W"
0\"
0`"
0d"
0h"
0l"
0p"
0u"
0y"
0}"
0$#
0)#
0-#
01#
05#
09#
0>#
0B#
0F#
0J#
0N#
0S#
0W#
0[#
0_#
#3500
1;
1{
1""
1&"
1*"
1."
12"
16"
1:"
1>"
1C"
1G"
1K"
1O"
1S"
1W"
1\"
1`"
1d"
1h"
1l"
1p"
bUU00 t"
1u"
0w"
1y"
0z"
1}"
1$#
bUUU00 (#
1)#
0+#
1-#
0.#
11#
15#
19#
bUUU00 =#
1>#
0@#
1B#
0C#
1F#
1J#
1N#
1S#
1W#
1[#
1_#
#3750
0;
0{
0""
0&"
0*"
0."
02"
06"
0:"
0>"
0C"
0G"
0K"
0O"
0S"
0W"
0\"
0`"
0d"
0h"
0l"
0p"
0u"
0y"
0}"
0$#
0)#
0-#
01#
05#
09#
0>#
0B#
0F#
0J#
0N#
0S#
0W#
0[#
0_#
#4000
1;
0N
1\
Ue
Uh
0q
0s
Ut
1{
1""
1&"
1*"
1."
12"
16"
1:"
1>"
1C"
1G"
1K"
1O"
1S"
1W"
1\"
1`"
1d"
1h"
1l"
1p"
bU000 t"
1u"
1y"
0{"
1}"
0!#
1$#
bUU000 (#
1)#
1-#
0/#
11#
02#
15#
19#
bUU000 =#
1>#
1B#
0D#
1F#
0G#
1J#
1N#
1S#
1W#
1[#
1_#
#4250
0;
0{
0""
0&"
0*"
0."
02"
06"
0:"
0>"
0C"
0G"
0K"
0O"
0S"
0W"
0\"
0`"
0d"
0h"
0l"
0p"
0u"
0y"
0}"
0$#
0)#
0-#
01#
05#
09#
0>#
0B#
0F#
0J#
0N#
0S#
0W#
0[#
0_#
#4500
1%
b000U1UUU 1
1;
1I
1P
1b
1d
1n
1w
1y
1{
1""
1&"
1*"
1+"
1."
12"
16"
1:"
1>"
1C"
1G"
1K"
1O"
1S"
1W"
1\"
1`"
1d"
1h"
1l"
1p"
b0000 t"
1u"
1y"
1}"
0"#
1$#
bU0000 (#
1)#
1-#
11#
03#
15#
06#
19#
bU0000 =#
1>#
1B#
1F#
0H#
1J#
0K#
1N#
1S#
1W#
1[#
1_#
#4750
0;
0{
0""
0&"
0*"
0."
02"
06"
0:"
0>"
0C"
0G"
0K"
0O"
0S"
0W"
0\"
0`"
0d"
0h"
0l"
0p"
0u"
0y"
0}"
0$#
0)#
0-#
01#
05#
09#
0>#
0B#
0F#
0J#
0N#
0S#
0W#
0[#
0_#
#5000
b000U0UUU 2
1;
b0000 <
bU000 =
1{
1""
1&"
1*"
0,"
1-"
1."
12"
16"
1:"
1>"
1C"
1G"
1K"
1O"
1S"
1W"
1\"
1`"
1d"
1h"
1l"
1p"
1u"
1y"
1}"
1$#
0&#
0'#
b00000 (#
1)#
1-#
11#
15#
07#
19#
0<#
b00000 =#
1>#
1B#
1F#
1J#
0L#
1N#
0O#
bUUUU0 R#
1S#
0T#
1W#
1[#
1_#
#5250
03
04
0;
0{
0""
0&"
0*"
0."
02"
06"
0:"
0>"
0C"
0G"
0K"
0O"
0S"
0W"
0\"
0`"
0d"
0h"
0l"
0p"
0u"
0y"
0}"
0$#
0)#
0-#
01#
05#
09#
0>#
0B#
0F#
0J#
0N#
0S#
0W#
0[#
0_#
#5500
1;
1{
1""
1&"
1*"
1."
12"
16"
1:"
1>"
1C"
1G"
1K"
1O"
1S"
1W"
1\"
1`"
1d"
1h"
1l"
1p"
1u"
1y"
1}"
1$#
1)#
1-#
11#
15#
19#
1>#
1B#
1F#
1J#
1N#
bUUU00 R#
1S#
0U#
1W#
0X#
1[#
1_#
#5750
0;
0{
0""
0&"
0*"
0."
02"
06"
0:"
0>"
0C"
0G"
0K"
0O"
0S"
0W"
0\"
0`"
0d"
0h"
0l"
0p"
0u"
0y"
0}"
0$#
0)#
0-#
01#
05#
09#
0>#
0B#
0F#
0J#
0N#
0S#
0W#
0[#
0_#
#6000
1'
1(
b000U1U11 1
1;
1J
1O
1e
1g
1t
1v
1{
1|
1""
1#"
1&"
1*"
1."
12"
16"
1:"
1>"
1C"
1G"
1K"
1O"
1S"
1W"
1\"
1`"
1d"
1h"
1l"
1p"
1u"
1y"
1}"
1$#
1)#
1-#
11#
15#
19#
1>#
1B#
1F#
1J#
1N#
bUU000 R#
1S#
1W#
0Y#
1[#
0\#
1_#
#6250
0;
0{
0""
0&"
0*"
0."
02"
06"
0:"
0>"
0C"
0G"
0K"
0O"
0S"
0W"
0\"
0`"
0d"
0h"
0l"
0p"
0u"
0y"
0}"
0$#
0)#
0-#
01#
05#
09#
0>#
0B#
0F#
0J#
0N#
0S#
0W#
0[#
0_#
#6500
b000U0U00 2
1;
Uz
1{
0}
1!"
1""
0$"
1%"
1&"
1*"
1."
12"
16"
1:"
1>"
1C"
1G"
1K"
1O"
1S"
1W"
1\"
1`"
1d"
1h"
1l"
1p"
1u"
1y"
1}"
1$#
1)#
1-#
11#
15#
19#
1>#
1B#
1F#
1J#
1N#
bU0000 R#
1S#
1W#
1[#
0]#
1_#
0`#
#6750
0;
0{
0""
0&"
0*"
0."
02"
06"
0:"
0>"
0C"
0G"
0K"
0O"
0S"
0W"
0\"
0`"
0d"
0h"
0l"
0p"
0u"
0y"
0}"
0$#
0)#
0-#
01#
05#
09#
0>#
0B#
0F#
0J#
0N#
0S#
0W#
0[#
0_#
#7000
1;
b0000 =
1{
1""
1&"
1*"
1."
12"
16"
1:"
1>"
1C"
1G"
1K"
1O"
1S"
1W"
1\"
1`"
1d"
1h"
1l"
1p"
1u"
1y"
1}"
1$#
1)#
1-#
11#
15#
19#
1>#
1B#
1F#
1J#
1N#
0Q#
b00000 R#
1S#
1W#
1[#
1_#
0a#
#7250
0;
0{
0""
0&"
0*"
0."
02"
06"
0:"
0>"
0C"
0G"
0K"
0O"
0S"
0W"
0\"
0`"
0d"
0h"
0l"
0p"
0u"
0y"
0}"
0$#
0)#
0-#
01#
05#
09#
0>#
0B#
0F#
0J#
0N#
0S#
0W#
0[#
0_#
#7500
1$
b00011U11 1
1;
1K
1h
1x
1{
1""
1&"
1*"
1."
1/"
12"
16"
1:"
1>"
1C"
1G"
1K"
1O"
1S"
1W"
1\"
1`"
1d"
1h"
1l"
1p"
1u"
1y"
1}"
1$#
1)#
1-#
11#
15#
19#
1>#
1B#
1F#
1J#
1N#
1S#
1W#
1[#
1_#
#7750
0;
0{
0""
0&"
0*"
0."
02"
06"
0:"
0>"
0C"
0G"
0K"
0O"
0S"
0W"
0\"
0`"
0d"
0h"
0l"
0p"
0u"
0y"
0}"
0$#
0)#
0-#
01#
05#
09#
0>#
0B#
0F#
0J#
0N#
0S#
0W#
0[#
0_#
#8000
b00000U00 2
1;
1w
1{
1""
1&"
1*"
1."
00"
11"
12"
16"
1:"
1>"
1C"
1G"
1K"
1O"
1S"
1W"
1\"
1`"
1d"
1h"
1l"
1p"
1u"
1y"
1}"
1$#
1)#
1-#
11#
15#
19#
1>#
1B#
1F#
1J#
1N#
1S#
1W#
1[#
1_#
#8250
0;
0{
0""
0&"
0*"
0."
02"
06"
0:"
0>"
0C"
0G"
0K"
0O"
0S"
0W"
0\"
0`"
0d"
0h"
0l"
0p"
0u"
0y"
0}"
0$#
0)#
0-#
01#
05#
09#
0>#
0B#
0F#
0J#
0N#
0S#
0W#
0[#
0_#
#8500
1;
1{
1""
1&"
1*"
1."
12"
16"
1:"
1>"
1C"
1G"
1K"
1O"
1S"
1W"
1\"
1`"
1d"
1h"
1l"
1p"
1u"
1y"
1}"
1$#
1)#
1-#
11#
15#
19#
1>#
1B#
1F#
1J#
1N#
1S#
1W#
1[#
1_#
#8750
0;
0{
0""
0&"
0*"
0."
02"
06"
0:"
0>"
0C"
0G"
0K"
0O"
0S"
0W"
0\"
0`"
0d"
0h"
0l"
0p"
0u"
0y"
0}"
0$#
0)#
0-#
01#
05#
09#
0>#
0B#
0F#
0J#
0N#
0S#
0W#
0[#
0_#
#9000
1;
1{
1""
1&"
1*"
1."
12"
16"
1:"
1>"
1C"
1G"
1K"
1O"
1S"
1W"
1\"
1`"
1d"
1h"
1l"
1p"
1u"
1y"
1}"
1$#
1)#
1-#
11#
15#
19#
1>#
1B#
1F#
1J#
1N#
1S#
1W#
1[#
1_#
#9250
0;
0{
0""
0&"
0*"
0."
02"
06"
0:"
0>"
0C"
0G"
0K"
0O"
0S"
0W"
0\"
0`"
0d"
0h"
0l"
0p"
0u"
0y"
0}"
0$#
0)#
0-#
01#
05#
09#
0>#
0B#
0F#
0J#
0N#
0S#
0W#
0[#
0_#
#9500
0&
b00011011 1
b0 6
07
1;
0C
0Q
0z
1{
1""
1&"
0'"
1*"
1."
12"
16"
1:"
1>"
1C"
1G"
1K"
1O"
1S"
1W"
1\"
1`"
1d"
1h"
1l"
1p"
1u"
1y"
1}"
1$#
1)#
1-#
11#
15#
19#
1>#
1B#
1F#
1J#
1N#
1S#
1W#
1[#
1_#
#9750
0;
0{
0""
0&"
0*"
0."
02"
06"
0:"
0>"
0C"
0G"
0K"
0O"
0S"
0W"
0\"
0`"
0d"
0h"
0l"
0p"
0u"
0y"
0}"
0$#
0)#
0-#
01#
05#
09#
0>#
0B#
0F#
0J#
0N#
0S#
0W#
0[#
0_#
#10000
b00000000 2
1;
1{
1""
1&"
0("
0)"
1*"
1."
12"
16"
1:"
1>"
1C"
1G"
1K"
1O"
1S"
1W"
1\"
1`"
1d"
1h"
1l"
1p"
1u"
1y"
1}"
1$#
1)#
1-#
11#
15#
19#
0;#
1>#
1B#
1F#
1J#
1N#
0P#
1S#
1W#
1[#
1_#
#10250
0;
0{
0""
0&"
0*"
0."
02"
06"
0:"
0>"
0C"
0G"
0K"
0O"
0S"
0W"
0\"
0`"
0d"
0h"
0l"
0p"
0u"
0y"
0}"
0$#
0)#
0-#
01#
05#
09#
0>#
0B#
0F#
0J#
0N#
0S#
0W#
0[#
0_#
#10500
13
14
b10000 5
08
1;
1B
1U
1j
1{
1""
1&"
1*"
1."
12"
16"
1:"
1>"
1C"
1G"
1K"
1O"
1S"
1W"
1\"
1`"
1d"
1h"
1l"
1p"
1u"
1y"
1}"
1$#
1)#
1-#
11#
15#
19#
1>#
1B#
1F#
1J#
1N#
1S#
1W#
1[#
1_#
#10750
0;
0{
0""
0&"
0*"
0."
02"
06"
0:"
0>"
0C"
0G"
0K"
0O"
0S"
0W"
0\"
0`"
0d"
0h"
0l"
0p"
0u"
0y"
0}"
0$#
0)#
0-#
01#
05#
09#
0>#
0B#
0F#
0J#
0N#
0S#
0W#
0[#
0_#
#11000
1;
1{
1""
1&"
1*"
1."
12"
16"
1:"
1>"
1C"
1G"
1K"
1O"
1S"
1W"
1\"
1`"
1d"
1h"
1l"
1p"
1u"
1y"
1}"
1$#
1)#
1-#
11#
15#
19#
1>#
1B#
1F#
1J#
1N#
1S#
1W#
1[#
1_#
#11250
0;
0{
0""
0&"
0*"
0."
02"
06"
0:"
0>"
0C"
0G"
0K"
0O"
0S"
0W"
0\"
0`"
0d"
0h"
0l"
0p"
0u"
0y"
0}"
0$#
0)#
0-#
01#
05#
09#
0>#
0B#
0F#
0J#
0N#
0S#
0W#
0[#
0_#
#11500
1;
1{
1""
1&"
1*"
1."
12"
16"
1:"
1>"
1C"
1G"
1K"
1O"
1S"
1W"
1\"
1`"
1d"
1h"
1l"
1p"
1u"
1y"
1}"
1$#
1)#
1-#
11#
15#
19#
1>#
1B#
1F#
1J#
1N#
1S#
1W#
1[#
1_#
#11750
0;
0{
0""
0&"
0*"
0."
02"
06"
0:"
0>"
0C"
0G"
0K"
0O"
0S"
0W"
0\"
0`"
0d"
0h"
0l"
0p"
0u"
0y"
0}"
0$#
0)#
0-#
01#
05#
09#
0>#
0B#
0F#
0J#
0N#
0S#
0W#
0[#
0_#
